{
"0": "Sonido", 
"1": "Gameplay", 
"2": "Graficos", 
"3": "Entrada", 
"4": "Otros.", 
"5": "Volumen Principal:%d", 
"6": "Volumen de efectos:%d", 
"7": "Resolucion", 
"8": "Pantalla completa", 
"9": "FPS ilimitados", 
"10": "Mostrar FPS", 
"12": "Iniciar asistente del offset", 
"13": "Offset de los golpes  (hit):%+d", 
"14": "Offset grafico:%+d", 
"15": "Anchura de la columna del modo Key", 
"16": "Ancho de la columna fija", 
"17": "Ancho del panel fijo", 
"18": "Posición del disco DJ a la izquierda", 
"19": "Ocultar Storyboard", 
"20": "Ocultar teclado virtual", 
"21": "Utilizar teclado con ancho completo", 
"22": "Restablecer mapeo de teclas", 
"23": "Volver a cargar los mapas", 
"24": "Visitar sitio web", 
"25": "Idioma", 
"26": "Volumen del sistema:%d", 
"27": "Pocision de la columna del modo Key:%d%%", 
"28": "Buscar actualizaciones", 
"29": "Usar columna 3D", 
"30": "Angulo de la columna 3D:%d", 
"31": "Habilitar teclado externo", 
"32": "Activar efectos gráficos adicionales", 
"33": "Mostrar la barra del offset mientras juegas", 
"34": "Activar el sonido de las teclas", 
"35": "Sonido de teclas personalizado", 
"36": "Cerrar sesión", 
"37": "Skin actual", 
"38": "Activar modo vertical", 
"39": "Activar pantalla táctil", 
"40": "Salir", 
"41": "Ocultar las líneas de la columna", 
"42": "Rendimiento del audio:%d", 
"43": "Ayuda", 
"44": "Experimental", 
"45": "Usar el nuevo motor de las keysounds", 
"46": "Feedback e informe de errores", 
"47": "Previsualizar la interfaz del modo Key", 
"48": "Red", 
"49": "Servidor", 
"50": "Volumen de la musica", 
"51": "Volumen de los efectos", 
"52": "Offset de los golpes", 
"53": "Offset gráfico", 
"54": "Angulo de la columna", 
"55": "Directorio de mapas personalizado", 
"56": "Rotar campo de juego", 
"57": "Usar ASIO:", 
"58": "Mostrar titulos en su idioma original", 
"59": "Deshabilitar el desplazamiento en el editor del modo Key", 
"60": "Version", 
"61": "Plataforma", 
"62": "Mostrar canciones en modo Cuadricula", 
"63": "Usar OpenSL", 
"64": "Administrar skins", 
"65": "Invertir la rueda del ratón", 
"66": "Activar sonido de teclas al final", 
"67": "Selecciona para cambiar las teclas vincualdas", 
"68": "Usar tecla para", 
"69": "Host del servidor de la tienda", 
"70": "Bloquear FPS", 
"71": "Taza de refresco", 
"72": "Efecto grafico", 
"73": "Escala de la escena", 
"74": "Compensación del movimiento 3D", 
"75": "Compensación del grosor 3D", 
"76": "Posicion de la capa", 
"77": "Saltar preview de las keysounds", 
"78": "Hold Adjustment",
"79": "Stop On Hit",
"80": "Stop On Judge",
"81": "Snap to Judge",
"82": "Hit Distance",
"83": "Backup",
"100": "Borrar canción", 
"101": "Abrir directorio de canciones", 
"102": "Borrar mapa", 
"103": "Borrar puntuaciones locales", 
"104": "Ver en la tienda", 
"105": "No estable", 
"106": "Seleccionar mod", 
"107": "Modo preferido", 
"108": "Presiona para buscar", 
"109": "Editar este mapa", 
"110": "Crear nuevo mapa", 
"111": "Obtener mas mapas", 
"112": "Crear nuevo mapa", 
"113": "Atras", 
"114": "Ranking", 
"115": "Opciones", 
"116": "Local", 
"117": "Progreso", 
"118": "Completo", 
"119": "Pausar", 
"120": "Aceptar", 
"121": "Judge", 
"122": "Mostrar todos los mapas", 
"123": "Vistar en el sitio web", 
"124": "No disponible", 
"125": "Desconocido", 
"126": "Copiar y editar", 
"127": "RANKING LOCAL", 
"128": "RANKING ONLINE", 
"129": "MEJOR SCORE", 
"130": "Velocidad de las notas", 
"131": "Lista de Descargas", 
"132": "Buscar", 
"133": "Como importar mapas", 
"134": "Convirtiendo audio a formato OGG", 
"135": "¿Esta seguro de que quiere eliminar el mapa?", 
"136": "¿Esta seguro de que quiere eliminar la canción?", 
"137": "Importar Mapas", 
"138": "Descargado con exito", 
"139": "Compartir mapa con...", 
"140": "Crear nueva colección", 
"141": "¿Esta seguro de que quiere eliminar esta coleccion?", 
"142": "Añadido", 
"143": "Quitar", 
"144": "Todos los mapas", 
"145": "Escriba aqui para buscar", 
"146": "Lista de mensajes", 
"147": "Ningun mensaje", 
"148": "Items incluidos", 
"149": "Mapas incluidos", 
"150": "Eliminar", 
"151": "Compartir", 
"170": "Lista de amigos", 
"171": "Buscar jugadores", 
"172": "Enviar mensaje", 
"173": "Invitar a la sala", 
"174": "Audio para el nuevo mapa", 
"175": "Importar skin", 
"176": "Comentarios", 
"177": "Ranking Global", 
"178": "Canciones", 
"179": "Ver repetición", 
"180": "Semanal", 
"181": "Mute", 
"182": "Compartir como un pack de canciones", 
"183": "Compartr como un pack de mapas", 
"200": "Mira a Marlo jugar perfecto", 
"201": "Juega con notas al azar", 
"202": "Juega con las notas en modo espejo", 
"203": "Ignorar el desplazamiento de las notas cambiado por BPMs", 
"204": "20% más rápido", 
"205": "50% más rápido", 
"206": "La nota va desapareciendo mientras más se acerca", 
"207": "Jugar con el judge original", 
"208": "20% más lento", 
"209": "No mueras!", 
"210": "Usar el mismo judge para la partida", 
"211": "Jugar con las notas invertidas", 
"250": "DIFICULTAD", 
"251": "PARTICULAR", 
"252": "AYUDA", 
"253": "REINICIAR", 
"254": "BOOST DEL SCORE", 
"255": "Este mod no está permitido", 
"300": "Teclas de enlace", 
"301": "Presiona [Esc] para restablecer", 
"302": "Prueba el offset: %d", 
"303": "¿Esta seguro de que quiere salir de Malody?", 
"304": "Salir a la posicion actual", 
"305": "Score", 
"306": "Combo", 
"307": "Precisión", 
"308": "Offset del Mapa", 
"309": "Oscuridad del fondo", 
"310": "Finalizar", 
"311": "Watch Player",
"312": "Start Live Streaming",
"313": "The Host is offline",
"400": "Presiona para iniciar sesion", 
"401": "Iniciar sesión", 
"402": "Perfil", 
"403": "Registrarse", 
"404": "Nombre de Usuario", 
"405": "Contraseña", 
"406": "¿Olvido su contraseña?", 
"500": "Por favor, añade canciones a la carpeta <beatmap> , presiona [F5] para actualizar", 
"501": "Por favor, añade canciones al directorio <sdcard/data/malody/beatmap>", 
"502": "Por favor, mueve las canciones a iTunes", 
"503": "Mueve las canciones en formato (.zip) a Malody", 
"504": "Por favor, guarda tus skins en formato msz(.zip)", 
"505": "Por favor, añade \"custom.wav\" al directorio <skin>", 
"506": "Calibrar offset del audio", 
"507": "Toca la pantalla o pulsa la tecla F cuando la nota llegue a la linea roja", 
"600": "Todo", 
"601": "Titulo", 
"602": "Duracion", 
"603": "BPM", 
"604": "Tiempo de Importacion", 
"605": "Estable", 
"606": "Beta", 
"607": "Alpha", 
"608": "Mapa offline", 
"609": "Actualizar", 
"650": "Ascendiendo", 
"651": "Descendiendo", 
"700": "Support", 
"701": "Ayuda al creador con 50 de oro si te ha gustado este mapa!", 
"702": "Has obtenido un nuevo puesto: #%d", 
"703": "Tu mejor puntuacion es %d (+%d)", 
"704": "Donación enviada con éxito!", 
"705": "Reintentar", 
"706": "Enviando", 
"707": "Mapa inestable", 
"708": "Envio fallido", 
"709": "Recomendado", 
"710": "No\nRecomendado", 
"711": "Escribe un\nComentario", 
"712": "Recomienda este mapa a otros jugadores", 
"713": "Este mapa requiere modificaciones", 
"714": "Deja un comentario sobre este mapa en la pagina web", 
"715": "Revision", 
"716": "Exportar a:", 
"717": "Nuevo Puesto Global Alcanzado:", 
"718": "REPETICION", 
"719": "PUESTO GLOBAL", 
"720": "Donar 50 de oro", 
"721": "Donar 500 de oro", 
"722": "Anular la recomendacion", 
"723": "Anular el no recomendado", 
"724": "SALIR", 
"725": "CONTINUAR", 
"726": "RANKING DE LA PARTIDA", 
"727": "Puntuacion enviada", 
"800": "Inicia sesion para hablar con otros jugadores", 
"801": "Estas en un chat publico, por favor habla en ingles", 
"802": "Añadir como amigo", 
"803": "Amigo", 
"804": "Amigo en comun", 
"805": "Logros", 
"806": "Puzzles", 
"807": "Cerrar sesion", 
"808": "Canales", 
"809": "Crear sala", 
"810": "LISTA DE SALAS", 
"811": "Nombre de la sala", 
"812": "Jugadores", 
"813": "Esperando", 
"814": "Jugando", 
"815": "Mostrar salas en espera", 
"816": "Listo", 
"817": "Cancelar ¨Listo¨", 
"818": "Comenzar", 
"819": "Expulsar al jugador", 
"820": "Transferir host", 
"821": "Modo de puntuación", 
"822": "Victoria por mayor puntuacion", 
"823": "Victoria por combo mas alto", 
"824": "Victoria por mayor precision", 
"825": "Ocultar notas", 
"826": "Silenciar", 
"827": "Modo por equipos", 
"828": "Solo", 
"829": "Dos equipos", 
"830": "Mods", 
"831": "Ultima vez jugado", 
"832": "Hace %d días", 
"833": "Hace %d horas", 
"834": "Hace %d minutos", 
"835": "Tiempo añadido", 
"836": "Jugado por ultima vez", 
"837": "No has seleccionado ningun mapa", 
"838": "UNIRSE", 
"839": "En una racha de %d victorias!", 
"840": "Años atras", 
"841": "Mostrar todos los mapas", 
"842": "Mostrar mapas revisados", 
"843": "Sala Privada", 
"844": "Introduce la contraseña de la sala", 
"845": "Jugado", 
"846": "Mapas jugados", 
"847": "Mejores clasificaciones", 
"848": "Mapas", 
"849": "Logros", 
"850": "Puzzles", 
"851": "Perfil", 
"852": "Oro", 
"853": "Nota", 
"854": "Editar perfil", 
"855": "Selecciona o crea una sala", 
"856": "Sala Publica", 
"857": "Genero", 
"858": "Fecha de nacimiento", 
"859": "Pais", 
"860": "Contenido del perfil", 
"861": "Chico", 
"862": "Chica", 
"863": "Selecciona o crea una sala", 
"864": "Selecciona la cancion", 
"865": "Selecciona el mapa", 
"866": "10-Player Room",
"900": "Jugar Online", 
"901": "Jugar Offline", 
"902": "Asistente en la calibracion del offset", 
"903": "Haz clic en \"Start\" para escuchar el ritmo", 
"904": "Toca la pantalla o pulsa la tecla [F] a lo largo del ritmo para obtener un resultado estable", 
"905": "Iniciar", 
"906": "Reiniciar", 
"907": "Mostrar notas", 
"908": "Tocar sonido", 
"909": "Toca la pantalla o pulsa la tecla [F] a lo largo del ritmo para obtener un resultado estable", 
"910": "CONFIGURACION", 
"911": "SALA DE CHAT", 
"912": "RED", 
"913": "MOD", 
"914": "LOBBY", 
"915": "SALA", 
"916": "PERFIL", 
"917": "RESULTADO", 
"918": "SKIN", 
"919": "TIENDA", 
"920": "TAREAS", 
"921": "MAPA", 
"922": "CANCION", 
"923": "NOTICIAS", 
"924": "ENVIOS", 
"925": "COLECCION", 
"926": "EDITOR DE CARPETA", 
"927": "TIENDA DE ITEMS",
"1000": "Por favor inicia sesión", 
"1001": "Por favor espera", 
"1002": "Toca la pantalla o pulsa la tecla F siguiendo el ritmo, ajusta el offset, que la nota y la linea roja encajen", 
"1003": "Has conseguido mala puntuación por un mal offset.", 
"1004": "¿Quieres calibrarlo automaticamente?", 
"1005": "No tienes este mapa", 
"1006": "Calibracion del offset dinamico", 
"1007": "Ajusta automaticamente la compensacion del audio mientras juegas", 
"1008": "El nuevo motor de keysounds consigue una mejor experiencia para los mapas hechos a base de esa funcion", 
"1009": "Estas jugando la version mas nueva de Malody.", 
"1010": "Bienvenido a la tienda de Malody. Aqui puedes encontrar los ultimos 80 mapas subidos por jugadores de todo el mundo, puedes descargar un mapa o compartir el tuyo. Tambien puedes visitar nuestra pagina web: m.mugzone.net (donde encontraras mas!)", 
"1011": "Presiona 2 veces para jugar este mapa", 
"1012": "Timeout", 
"1013": "Se recomienda ejecutar el Asistente de Calibración del Offset antes de jugar, para tener una mejor experiencia. Esto restablecera tu offset actual.", 
"1014": "Por defecto", 
"1015": "Pulse [Espacio] para terminar", 
"1016": "Pulse para terminar", 
"1017": "Invitado", 
"1018": "¿Estas seguro de que quieres salir?", 
"1019": "Error del servidor", 
"1020": "OK", 
"1021": "Cancelar", 
"1022": "Aplicar al offset global", 
"1023": "Aplicar al offset del mapa", 
"1024": "Malody no pudo cargar la cancion", 
"1025": "Intenta re-cargar", 
"1026": "Borrar la cancion", 
"1027": "¿Quieres usar esta cancion para crear un nuevo mapa?", 
"1028": "¿Quieres usar esta imagen como fondo?", 
"1029": "Esta cancion no tiene un mapa", 
"1030": "¿Quieres ver esta replay?", 
"1031": "¿Qué te gustaria hacer?", 
"1032": "La skin se ha importado con exito", 
"1033": "No se ha podido importar la skin", 
"1034": "¿Quieres borrar la skin?", 
"1035": "Selecciona el modo para el chart", 
"1036": "Cuando se elimine la columna, todas las notas de esa columna se borraran permanentemente. ¿Estas seguro de que quieres continuar?", 
"1037": "La función de editar mapas que no sean de Malody esta en fase Beta.", 
"1038": "Mostrar todos los mapas creados para la cancion, incluir:\nEstable: Publicado por publishers, Aceptar envio de Score\nBeta/Alpha: Mapas WIP", 
"1039": "Desplazate por la linea de tiempo, pulsa el boton de copiar otra vez para seleccionar el lugar del final.", 
"1040": "Presiona el boton de [Pegar] para pegar las notas", 
"1041": "Presiona para continuar", 
"1042": "Toca para hablar", 
"1043": "Operacion exitosa", 
"1044": "Mapa importado con exito", 
"1045": "Fallo al importar el mapa", 
"1046": "Establecer una tecla alternativa para el disco de DJ", 
"1047": "Malody soporta los teclados externos OTG. Por favor, asegurate de que el teclado este conectado para poder usarlo.", 
"1048": "Te han mencionado en el canal público!", 
"1049": "Si estas disfrutadno de tu experiencia jugando a Malody, dejanos un comentario en la App Store o en la Google Play para hacer conocer más sobre el juego!", 
"1051": "Ok, hazlo ahora", 
"1052": "Previsualizacion del modo Ring", 
"1053": "Por favor, comprueba que tu dispositivo es compatible con el modo de salida ASIO para utilizar esta funcion", 
"1054": "Por favor, reinicia Malody para aplicar los cambios", 
"1055": "Malody es un regalo para todos los amantes de los juegos de ritmo en el mundo.", 
"1056": "Esta skin cuesta %d de oro.", 
"1057": "Offset cambiado por:", 
"1058": "Iniciando sesion...", 
"1059": "Ingresar", 
"1060": "Por favor, selecciona el nivel de dificultad", 
"1061": "Por favor, cancela tu estado \"Listo\" primero .", 
"1062": "Los jugadores no estan listos", 
"1063": "Añadido a las descargas", 
"1064": "Conectado al servidor online", 
"1065": "Ahora eres el host de la sala.", 
"1066": "UPS! Te has quedado sin oro, necesitas oro para descargar los mapas de la tienda. Puedes obtener oro jugando mapas o completando las misiones diarias.", 
"1067": "Respuesta rapida", 
"1068": "Listo!", 
"1069": "Empecemos", 
"1070": "Espera un minuto!", 
"1071": "Este mapa es muy difícil", 
"1072": "Este mapa esta fácil", 
"1073": "Buena partida", 
"1074": "Juguemos otra vez", 
"1075":"We are in Early Access!\nThis means not every functionality of the game may work properly, but please make sure to report what you found annoying or simply wrong to you.\nThanks for playing Malody, and hope you will be back when the game is complete!",
"1100": "¿Quieres cerrar la sesion?", 
"1101": "Las teclas de enlace se han reiniciado.", 
"1102": "Actualizar los mapas puede tomar unos cuantos minutos. ¿Quieres continuar?", 
"1103": "¡Logro desbloqueado!", 
"1104": "¡Puzzle desbloqueado!", 
"1105": "Añadido a la coleccion!", 
"1106": "No se puede guardar el perfil", 
"1107": "¿Quieres un Banner Personalizado durante un mes por 5.000 de oro?", 
"1108": "No tienes oro suficiente", 
"1109": "¿Quieres cambiar tu nombre de usuario por 80.000 de oro? (Solo puedes una vez cada 180 dias)", 
"1110": "¿Quieres salir de la sala?", 
"1111": "Esta caracteristica esta en desarrollo :D", 
"1112": "No estas en ninguna sala", 
"1113": "Paga %d de oro para conseguir un espacio", 
"1114": "Tu pago se ha realizado con éxito", 
"1115": "Tu pago se ha cancelado debido a un error del sistema", 
"1116": "El correo electrónico para el restablecimiento de la contraseña se ha enviado a tu buzón.", 
"1117": "¿Quieres borrar las puntuaciones locales?", 
"1118": "Compra exitosa", 
"1119": "Con el modo Turbo, puedes cambiar las reglas de los judges, pero el servidor no aceptará el Score.", 
"1120": "Judge al final", 
"1121": "Solo un dedo", 
"1122": "Fallo temprano", 
"1123": "Desactivar el boton de pausa", 
"1124": "Velocidad de la cancion", 
"1125": "Escaneando la carpeta de mapas", 
"1126": "Se han actualizado los mapas", 
"1127": "Guardado en:", 
"1128": "Nueva version disponible", 
"1129": "Pausar y Continuar se han deshabilitado", 
"1130": "Only Players on Malody V can enter 10-player room",
"1131": "Share success",
"1200": "Elige una accion", 
"1201": "Elige el tipo de orden", 
"1202": "¿Quieres continuar?", 
"1203": "Elige un modo", 
"1204": "Elige el contenido a importar", 
"1205": "Elige el estilo del mapa", 
"1206": "¿Quieres cancelar la subida?", 
"1207": "Selecciona cuanto oro quieres donar", 
"1208": "Select mute day(s)", 
"1209": "Shortcut",
"1210": "Upload And Share chart to other players",
"1300": "Obramaestra (God)", 
"1301": "Muy positivas", 
"1302": "Positivas", 
"1303": "Mayormente positivas", 
"1304": "Mixed", 
"1305": "Mayormente negativas", 
"1306": "Negativas", 
"1307": "Muy negativas", 
"2000": "Borrado fallido", 
"2001": "No se puede borrar el mapa SM", 
"2002": "Error al enviar el mensaje", 
"2003": "Esta version es muy antigua", 
"2004": "El mapa no es estable", 
"2005": "Inicio de sesion fallido: por favor, intentalo mas tarde.", 
"2006": "Inicio de sesion fallido: el nombre de usuario o la contraseña no coinciden.", 
"2007": "Por favor, selecciona una posición después de el comienzo.", 
"2008": "Por favor, tenga cuidado de no tener notas debajo de la posicion de el Hold.", 
"2009": "No se puede copiar el archivo a la carpeta del mapa", 
"2010": "Coloca la nota Hold primero", 
"2011": "No se puede colocar una nota aquí", 
"2012": "solo se soportan los formatos (.png) o (.jpg)", 
"2013": "No se puede editar un mapa que no sea de malody.", 
"2014": "Asegurate que el audio del mapa sea en formato (.mp3) o (.ogg)", 
"2015": "SID incorrecto", 
"2016": "CID incorrecto", 
"2017": "No eres el propietario del mapa.", 
"2018": "Por favor, comprueba los datos del mapa de nuevo", 
"2019": "No se puede subir un mapa ya estable.", 
"2020": "Error del servidor", 
"2021": "No se puede subir al servidor", 
"2022": "Por favor, primero cancela la subida anterior", 
"2023": "Error al detectar el BPM", 
"2024": "El archivo que se está subiendo tiene una versión existente en el servidor. El editor lo volverá a subir después de un cambio de nombre automático.", 
"2025": "Selecciona la imagen con un tamaño maximo de 2 MB.", 
"2026": "El disco está lleno o no funcionable.", 
"2027": "No se puede importar este tipo de archivo", 
"2028": "No se ha seleccionado ninguna nota.", 
"2029": "No hay más espacios disponibles para los mapas!/nCada mapa ocupa un espacio hasta que sea estable. Intenta estabilizar el mapa que has subido o compra más espacios a través de la página web con Oro.", 
"2030": "No puedes donar a un mapa inestable", 
"2031": "No tienes suficiente oro para una donación", 
"2032": "No se puede revisar este mapa", 
"2033": "Desconectado del servidor", 
"2034": "No se puede añadir un BPM aquí", 
"2035": "Numero de BPM incorrecto", 
"2036": "No se puede realizar esta operación", 
"2037": "La edición sólo está disponible para cuentas activas", 
"2038": "El tamaño del video para el fondo está limitado a 720p@25fps.", 
"2039": "No se puede copiar un mapa que no sea mc", 
"2040": "No puedes seleccionar el modo para las skins locales.", 
"2041": "No tienes suficiente oro", 
"2042": "No se puede descargar el archivo", 
"2043": "No puedes unirte a la sala", 
"2044": "No se puede crear una nueva sala", 
"2045": "Por favor, introduce el nombre a la sala", 
"2046": "Ya estas en una sala", 
"2047": "El archivo de la replay esta dañado", 
"2048": "No puedes jugar un mapa vacio", 
"2049": "Fallo al cargar el mapa", 
"2050": "Desactiva el offset dinamico para poder enviar la puntuacion", 
"2052": "La sala esta llena", 
"2053": "El envio del score fallo debido a tu mal rendimiento", 
"2054": "La funcion esta en fase beta", 
"2055": "El mapa no existe en la tienda", 
"2056": "Por favor, añade notas", 
"2057": "Ya tienes 6 mapas esperando a ser revisados", 
"2058": "Por favor, actualiza a la version mas reciente para usar esta función.", 
"2059": "Contraseña incorrecta!", 
"2060": "Algunos equipos están vacios, intenta balancearlo!", 
"2061": "[Error] Este mapa necesita un Titulo, un Artista, una Version, etc", 
"2062": "[Error] Este mapa contiene notas superpuestas.", 
"2063": "[Consejo] Asegurate de añadir una imagen de fondo a tu mapa.", 
"2064": "[Error] El mapa necesita ser mas largo que 60 segundos con un numero adecuado de notas.", 
"2100": "Por favor, selecciona al menos una nota Slide.", 
"2101": "Por favor, selecciona al menos 3 notas Wipe", 
"2102": "Por favor, revisa el mapa antes de subirlo", 
"2103": "El titulo o el artista contienen caracteres no validos.", 
"2104": "Inicio de sesion fallido: Fuiste baneado de Malody!", 
"2105": "Por favor, introduce tu informacion basica.", 
"2106": "La contraseña debe tener 8 caracteres o más", 
"2107": "La contraseña no coincide", 
"2108": "Este nombre de usuario ya esta registrado.", 
"2109": "Este correo electronico ya esta registrado.", 
"2110": "Solo estan permitidos a-z 0-9 y []()-_@ en los nombres de usuario, deben ser de 3 caracteres o más.", 
"2111": "El e-mail es invalido.", 
"2112": "Error al subir", 
"2113": "Ha ocurrido un error al convertir el archivo de audio", 
"2114": "Por favor, selecciona un mapa", 
"2115": "Formato de fecha incorrecto", 
"2116": "Ya has cambiado tu nombre de usuario en 180 dias", 
"2117": "No se han podido subir mas mapas por alguna razon.", 
"2118": "Por favor, selecciona el Sevidor de la Tienda en las opciones", 
"2119": "No puedes donarte a ti mismo :v", 
"2120": "Por favor, sube un Score antes de donar", 
"2121": "Has donado 1.000 de oro al mapa", 
"2122": "Host invalido o API no compatible", 
"2123": "The server is about to restart, multiplayer has been disabled",
"2124": "Can not retrive file from server",
"2125": "Can not connect to Steam",
"2126": "You have no permission",
"3000": "Todos los cambios seran guardados antes de la prueba.", 
"3001": "¿Te gustaria guardar todos los cambios antes de salir?", 
"3002": "La eliminacion de todas las notas es irreversible.", 
"3003": "Ajustes & Salir", 
"3004": "Titulo", 
"3005": "Artista", 
"3006": "Archivo de audio", 
"3007": "Archivo de la portada", 
"3008": "Archivo del fondo (BG)", 
"3009": "BPM", 
"3010": "Offset", 
"3011": "Guardar", 
"3012": "Información", 
"3013": "Subir al servidor", 
"3014": "Borrar todas las notas", 
"3015": "Detectar automaticamente", 
"3016": "Desplacese por la línea de tiempo y seleccione la posicion final.", 
"3017": "Probar desde el punto actual", 
"3018": "Probar desde el principio", 
"3020": "Subido con exito", 
"3021": "Guardado con exito", 
"3022": "Subida cancelada", 
"3023": "¿Estas seguro de que quieres cancelar la subida?", 
"3024": "La detección automática de BPM fue exitosa.", 
"3025": "Aplicar el resultado", 
"3026": "Inciertamente:", 
"3027": "Se sugiere usar la autodeteccion para analizar el BPM y el Offset automa ticamente al crear el mapa. La autodeteccion se puede encontrar en el menú durante la edición en caso de que se decida hacerla más tarde. En caso contrario, el BPM y el Offset se pueden establecer manualmente desde Menu -> Meta", 
"3028": "Como hacer estable mi mapa?", 
"3029": "Mostrar la página web del mapa", 
"3030": "Columna", 
"3031": "Salir y guardar", 
"3032": "Salir sin guardar", 
"3033": "Comprar mas espacios para tus mapas", 
"3034": "Espacios actuales:", 
"3035": "Dividir", 
"3036": "Velocidad", 
"3037": "Options", 
"3038": "Lista de archivos", 
"3039": "Exportado exitosamente a la carpeta <export>", 
"3040": "La exportación ha fallado", 
"3041": "Exportar mapa a .mcz", 
"3042": "Exportado con exito a la carpeta <Documents/export>", 
"3043": "Guardar automaticamente cada minuto", 
"3044": "Bloquear las notas", 
"3045": "Velocidad de descenso", 
"3046": "Presiona el mismo boton de nuevo para fijar el final", 
"3047": "Fin de la linea", 
"3048": "PUM! ¡Ha aparecido una MARLO salvaje!", 
"3049": "La linea-barra comienza en", 
"3050": "Establecer a partir del BPM actual", 
"3051": "Numero de golpes", 
"3052": "Envio", 
"3053": "Enviar el mapa para que sea revisado", 
"3054": "Esperando la revisión", 
"3055": "Revisando", 
"3056": "Rechazado", 
"3057": "No hay datos.", 
"3058": "Marcar como revisado", 
"3059": "Marcar como rechazado", 
"3060": "Cancelar el envio", 
"3061": "Contactar al publisher", 
"3062": "Contactar al creador", 
"3063": "Descargar el mapa", 
"3064": "Seleccionar el rango de copia", 
"3065": "Pegar", 
"3066": "Cortar", 
"3067": "Girar las notas horizontalmente", 
"3068": "Ajustes de la cuadrícula", 
"3069": "Líneas de la cuadrícula", 
"3070": "Alineación de la cuadrícula", 
"3071": "Modificar la nota Slide", 
"3072": "Cambiar nota Slide a Wipe", 
"3073": "Cambiar nota Wipe a Slide", 
"3074": "Tiempo de la Preview", 
"3075": "Titulo original", 
"3076": "Artista original", 
"3077": "Un solo paso", 
"3078": "Creador", 
"3079": "Subir", 
"3080": "Test play", 
"3081": "Deshacer", 
"3082": "Rehacer", 
"3083": "Deteccion de BPM", 
"3084": "Mapeo de teclas global", 
"3085": "Mapeo de teclas del modo actual", 
"3086": "Añadir", 
"3087": "Remover", 
"3088": "¿Aplicar el resultado de la detección de BPM al punto de sincronización principal?", 
"3089": "Dividir todas las cuadrículas", 
"3090": "Hacer una revisión IA", 
"3091": "Escala de la cuadricula", 
"3092": "Mas acciones", 
"3093": "Mostrar estadísticas", 
"3094": "Note Thickness",
"3095": "Scroll Multiplier",
"3096": "Note Align to Grid",
"3097": "Peer Review",
"3098": "Related Notes",
"3099": "Related Time",
"3100": "Reply",
"3101": "Issue Label",
"3102": "Open",
"3103": "Closed",
"3104": "Reopen",
"3105": "Invalid",
"3500": "Guardar", 
"3501": "Probar", 
"3502": "",
"3503": "Volumen +", 
"3504": "Volumen -", 
"3505": "Volumen de Teclas+", 
"3506": "Volumen de Teclas-", 
"3507": "Velocidad +", 
"3508": "Velocidad -", 
"3509": "Play/Pause", 
"3510": "Dividir +", 
"3511": "Dividir -", 
"3512": "Copiar", 
"3513": "Pegar", 
"3514": "Herramienta de Notas", 
"3515": "Herramienta de notas Hold", 
"3516": "Herramienta de Selección", 
"3517": "Herramienta de Borrado", 
"3518": "Deshacer", 
"3519": "Rehacer", 
"3520": "Girar notas", 
"3521": "Abrir lista de BPM", 
"3522": "Abrir información", 
"3523": "Abrir subidos", 
"3524": "Herramienta de nota Wipe", 
"3525": "Herramienta de nota Slide", 
"3526": "Separar", 
"3527": "Unir", 
"3528": "Herramienta de nota Flick", 
"3529": "Cambiar tamaño", 
"3530": "Añadir Don", 
"3531": "Añadir Ka", 
"3532": "Añadir Roll", 
"3533": "Añadir Balloon", 
"3534": "Añadir espacio", 
"3535": "Mover a la izquierda", 
"3536": "Mover a la derecha", 
"3537": "Cortar", 
"3538": "Borrar lo seleccionado", 
"3539": "Scale+",
"3540": "Scale-",
"3541": "Add Issue",
"3600": "Volver", 
"3601": "Seleccionar arriba", 
"3602": "Seleccionar abajo", 
"3603": "Confirmar", 
"3604": "Detener/Continuar la reproducción", 
"3605": "Reproducir Siguiente", 
"3606": "Reproducir Ultimo", 
"3607": "Actualizar mapas", 
"3608": "Captura de pantalla", 
"3609": "Quick Retry",
"4000": "Desconocido", 
"4001": "Asia", 
"4002": "Africa", 
"4003": "America del Norte", 
"4004": "America del Sur", 
"4005": "Europa", 
"4006":"Australia",
"4007":"Japan",
"4008":"China",
"4009":"United States",
"4010":"Taiwan (China)",
"4011":"Korea",
"4012":"Germany",
"4013":"Russian",
"4014":"Poland",
"4015":"France",
"4016":"Hong Kong (China)",
"4017":"Canada",
"4018":"Chile",
"4019":"Indonesia",
"4020":"Brazil",
"4021":"Thailand",
"4022":"Italy",
"4023":"United Kingdom",
"4024":"Argentina",
"4025":"Philippines",
"4026":"Finland",
"4027":"Netherlands",
"4028":"Malaysia",
"4029":"Spain",
"4030":"Mexico",
"4031":"Sweden",
"4032":"Singapore",
"4033":"New Zealand",
"4034":"Vietnam",
"4035":"Belgium",
"4036":"Switzerland",
"4037":"Austria",
"4038":"Bulgaria",
"4039": "Macau (China)",
"5000": "Welcome to Malody V, Would you like a tutorial?"
}
